%YAML 1.1
%TAG !u! tag:unity3d.com,2011:
--- !u!21 &2100000
Material:
  serializedVersion: 6
  m_ObjectHideFlags: 0
  m_CorrespondingSourceObject: {fileID: 0}
  m_PrefabInstance: {fileID: 0}
  m_PrefabAsset: {fileID: 0}
  m_Name: mat_flower_cornflower_01
  m_Shader: {fileID: 4800000, guid: 8b3898feb1c663b44bd2242beb1f553d, type: 3}
  m_ShaderKeywords: _ALPHATEST _COLOR_TINT _INTERACTION_OFF _LIGHTING_QUALITY_HIGH
    _SURFACE_MAP_METALLIC_GLOSS _TRANSLUCENCY _WIND _WIND_AUTO
  m_LightmapFlags: 4
  m_EnableInstancingVariants: 0
  m_DoubleSidedGI: 0
  m_CustomRenderQueue: 2450
  stringTagMap: {}
  disabledShaderPasses:
  - MOTIONVECTORS
  - DistortionVectors
  - TransparentDepthPrepass
  - TransparentDepthPostpass
  - TransparentBackface
  m_SavedProperties:
    serializedVersion: 3
    m_TexEnvs:
    - _Albedo:
        m_Texture: {fileID: 2800000, guid: 78d9e5e8c4864a54185833ef9a642a1c, type: 3}
        m_Scale: {x: 1, y: 1}
        m_Offset: {x: 0, y: 0}
    - _BumpMap:
        m_Texture: {fileID: 0}
        m_Scale: {x: 1, y: 1}
        m_Offset: {x: 0, y: 0}
    - _EmissionMap:
        m_Texture: {fileID: 0}
        m_Scale: {x: 1, y: 1}
        m_Offset: {x: 0, y: 0}
    - _MainTex:
        m_Texture: {fileID: 0}
        m_Scale: {x: 1, y: 1}
        m_Offset: {x: 0, y: 0}
    - _MaskMap:
        m_Texture: {fileID: 0}
        m_Scale: {x: 1, y: 1}
        m_Offset: {x: 0, y: 0}
    - _MetallicGlossMap:
        m_Texture: {fileID: 2800000, guid: 9ab2eba1c471ec94fa1f8f97ce5c7dff, type: 3}
        m_Scale: {x: 1, y: 1}
        m_Offset: {x: 0, y: 0}
    - _NormalMap:
        m_Texture: {fileID: 0}
        m_Scale: {x: 1, y: 1}
        m_Offset: {x: 0, y: 0}
    - _OcclusionMap:
        m_Texture: {fileID: 2800000, guid: 9ab2eba1c471ec94fa1f8f97ce5c7dff, type: 3}
        m_Scale: {x: 1, y: 1}
        m_Offset: {x: 0, y: 0}
    - _PackedMap:
        m_Texture: {fileID: 0}
        m_Scale: {x: 1, y: 1}
        m_Offset: {x: 0, y: 0}
    - _ThicknessMap:
        m_Texture: {fileID: 0}
        m_Scale: {x: 1, y: 1}
        m_Offset: {x: 0, y: 0}
    m_Floats:
    - _AlphaTest: 1
    - _AlphaTestThreshold: 0.5
    - _BakedMeshData: 0
    - _BumpScale: 1
    - _ColorCorrection: 0
    - _ColorVariationSpread: 0.2
    - _Cull: 0
    - _Cutoff: 0.5
    - _DEBUG: 3
    - _DoubleSidedMode: 0
    - _DoubleSidedNormalMode: 0
    - _EmissionIntensity: 0
    - _Glossiness: 0.2
    - _Interaction: 0
    - _InteractionDuration: 1
    - _InteractionPushDown: 1
    - _InteractionStrength: 1
    - _LightingQuality: 0
    - _Metallic: 0
    - _NatureRendererDistanceControl: 1
    - _NormalMapScale: 1
    - _ObjectHeight: 0.5
    - _ObjectRadius: 0.5
    - _Overlay: 0
    - _PerspectiveCorrection: 0.5
    - _RecalculateWindNormals: 0.5
    - _SURFACE_MAP: 1
    - _SampleAlphaOverlay: 1
    - _SampleColorOverlay: 1
    - _SpecularHighlights: 1
    - _SurfaceMapMethod: 1
    - _Translucency: 1
    - _TranslucencyAmbient: 0.5
    - _TranslucencyBlendMode: 1
    - _TranslucencyDistortion: 0.5
    - _TranslucencyScattering: 2
    - _TranslucencyStrength: 1
    - _TurbulenceStrength: 1
    - _VertexNormalStrength: 1
    - _WIND_CONTROL: 2
    - _Wind: 2
    - _WindStrength: 1
    - _WindVariation: 0.3
    m_Colors:
    - _EmissionColor: {r: 0, g: 0, b: 0, a: 1}
    - _GlossRemap: {r: 0, g: 1, b: 0, a: 0}
    - _HSL: {r: 0.02, g: 0.05, b: 0.1, a: 0}
    - _HSLVariation: {r: -0.02, g: -0.05, b: -0.1, a: 0}
    - _OcclusionRemap: {r: 0, g: 1, b: 0, a: 0}
    - _ScaleFade: {r: 50, g: 20, b: 0, a: 0}
    - _ThicknessRemap: {r: 0, g: 1, b: 0, a: 0}
    - _Tint: {r: 1, g: 1, b: 1, a: 1}
    - _TintVariation: {r: 1, g: 1, b: 1, a: 1}
    - _TranslucencyColor: {r: 1, g: 1, b: 1, a: 1}
    - _TrunkBendFactor: {r: 1, g: 0, b: 0, a: 0}
    - _WindFade: {r: 50, g: 20, b: 0, a: 0}
